"Timestamp","CPU IO Wait","cpuIdlePercent_average","cpuStealPercent_average","cpuSystemPercent_average","cpuUserPercent_average","criticalViolationCount_max","diskFreeBytes_max","diskFreePercent_max","diskReadUtilizationPercent_average","diskTotalBytes_max","diskUsedBytes_max","diskUsedPercent_average","diskUtilizationPercent_average","diskWriteUtilizationPercent_average","Disk Kbwps","Load Average","memoryFreeBytes_max","memoryFreePercent_max","Memory Util","memoryUsedPercent_max","swapFreeBytes_max"," Swap Memory Util","systemMemoryBytes_max","warningViolationCount_max"
"2020-08-25T14:22:00.000Z",0,0,0,0,0,0,0,0,0,0,0,0,0,0,1,0,0,95,1419232256,4,0,0,0,0
"2020-08-25T14:23:00.000Z",0,97,0,0,1,0,0,95,0,0,9012088832,0,0,0,0,0,0,0,0,0,0,0,0,0
